{
  "//re" : "Specifies the language with a formal regular expression. This is used if there is no DFA specification.",
  "re" : "(00)*",
  "//machine" : "Specifies the language with a DFA. This is the stringified output of cytoscape.js' cy object's elements() function's jsons() function. This is used if there is no handwritten specification.",
  "machine" : [
    {
      "data": {
        "label": "q0",
        "id": "de161b87-fd54-47b9-aa6a-990b770f2ce7"
      },
      "position": {
        "x": 593.34305053697,
        "y": 484.25375166612264
      },
      "group": "nodes",
      "removed": false,
      "selected": false,
      "selectable": false,
      "locked": false,
      "grabbable": true,
      "classes": "initial accepting"
    },
    {
      "data": {
        "label": "q1",
        "id": "476f14e4-2f96-446a-ae26-058d03162407"
      },
      "position": {
        "x": 380.4131106664765,
        "y": 449.31532527007874
      },
      "group": "nodes",
      "removed": false,
      "selected": false,
      "selectable": false,
      "locked": false,
      "grabbable": true,
      "classes": ""
    },
    {
      "data": {
        "source": "de161b87-fd54-47b9-aa6a-990b770f2ce7",
        "target": "476f14e4-2f96-446a-ae26-058d03162407",
        "id": "024186f2-4d07-47b6-9e43-77336e0b083b",
        "label": "0"
      },
      "position": {},
      "group": "edges",
      "removed": false,
      "selected": false,
      "selectable": false,
      "locked": false,
      "grabbable": true,
      "classes": ""
    },
    {
      "data": {
        "source": "476f14e4-2f96-446a-ae26-058d03162407",
        "target": "de161b87-fd54-47b9-aa6a-990b770f2ce7",
        "id": "0a590e7d-6aae-48ed-82cb-bbcac156e058",
        "label": "0"
      },
      "position": {},
      "group": "edges",
      "removed": false,
      "selected": false,
      "selectable": false,
      "locked": false,
      "grabbable": true,
      "classes": ""
    }
  ],
  "//handwritten" : "Specifies the language with a DFA as it should be written down by a human: list of states (the first one being the initial state), list of alphabet symbols, transition table (using indices from the states list to prevent typos) and accepting states (again using indices).",
  "handwritten" : {
    "states" : [
      "q0", "q1"
    ],
    "alphabet" : [ "0" ],
    "transitions" : [
      [ 1 ],
      [ 0 ]
    ],
    "accepting" : [ 0 ]
  },
  "//description" : "Text that is shown to the students in the 'help' dialog, in different languages.",
  "//description//(empty string)" : "The fallback locale.",
  "//description//en" : "English",
  "//description//de" : "Deutsch",
  "description" : {
    "" : "{<i>w</i>∊{0}<sup>*</sup> | |<i>w</i>| mod 2 = 0}",
    "en" : "The set of words consisting of an even number of 0s.",
    "de" : "Alle Wörter, die aus einer geraden Anzahl 0en bestehen."
  }
}
